AWSTATS DATA FILE 7.4 (build 20140726)
# If you remove this file, all statistics for date 201710 will be lost/reset.
# Last config file used to build this data file was /home/giscmcom/tmp/awstats/ssl/awstats.giscm.com.conf.

# Position (offset in bytes) in this file for beginning of each section for
# direct I/O access. If you made changes somewhere in this file, you should
# also remove completely the MAP section (AWStats will rewrite it at next
# update).
BEGIN_MAP 28
POS_GENERAL 2010                
POS_TIME 2693                
POS_VISITOR 7412                
POS_DAY 9111                
POS_DOMAIN 3423                
POS_LOGIN 3774                
POS_ROBOT 3929                
POS_WORMS 4320                
POS_EMAILSENDER 4451                
POS_EMAILRECEIVER 4594                
POS_SESSION 9392                
POS_SIDER 9599                
POS_FILETYPES 4729                
POS_DOWNLOADS 4915                
POS_OS 4963                
POS_BROWSER 5185                
POS_SCREENSIZE 5659                
POS_UNKNOWNREFERER 5733                
POS_UNKNOWNREFERERBROWSER 5989                
POS_ORIGIN 6219                
POS_SEREFERRALS 6358                
POS_PAGEREFS 6513                
POS_SEARCHWORDS 6719                
POS_KEYWORDS 6871                
POS_MISC 2356                
POS_ERRORS 6930                
POS_CLUSTER 3630                
POS_SIDER_404 7063                
END_MAP

# LastLine    = Date of last record processed - Last record line number in last log - Last record offset in last log - Last record signature value
# FirstTime   = Date of first visit for history file
# LastTime    = Date of last visit for history file
# LastUpdate  = Date of last update - Nb of parsed records - Nb of parsed old records - Nb of parsed new records - Nb of parsed corrupted - Nb of parsed dropped
# TotalVisits = Number of visits
# TotalUnique = Number of unique visitors
# MonthHostsKnown   = Number of hosts known
# MonthHostsUnKnown = Number of hosts unknown
BEGIN_GENERAL 8
LastLine 20171022080853 261 65170 16951812494878
FirstTime 20171013175001
LastTime 20171021180854
LastUpdate 20171022132025 261 0 261 0 0
TotalVisits 59                  
TotalUnique 41                  
MonthHostsKnown 0                   
MonthHostsUnknown 41                  
END_GENERAL

# Misc ID - Pages - Hits - Bandwidth
BEGIN_MISC 10
WindowsMediaPlayerSupport 0 0 0
JavaEnabled 0 0 0
JavascriptDisabled 0 0 0
TotalMisc 0 0 0
FlashSupport 0 0 0
AddToFavourites 0 24 0
DirectorSupport 0 0 0
QuickTimeSupport 0 0 0
PDFSupport 0 0 0
RealPlayerSupport 0 0 0
END_MISC

# Hour - Pages - Hits - Bandwidth - Not viewed Pages - Not viewed Hits - Not viewed Bandwidth
BEGIN_TIME 24
0 1 1 2915 10 16 69095
1 0 0 0 9 10 26126
2 1 1 9628 6 20 967371
3 1 1 9628 5 7 52177
4 0 0 0 6 17 257526
5 7 33 1000855 7 10 19596
6 5 34 990850 9 17 62700
7 0 0 0 8 10 25685
8 1 1 2915 7 8 15943
9 0 0 0 7 13 254236
10 5 38 1036094 9 25 200032
11 25 83 2105820 15 20 33794
12 54 177 4339536 13 17 86439
13 40 160 3785896 2 3 6300
14 60 296 8537929 10 19 91196
15 13 40 1018790 11 16 63015
16 8 85 2774955 8 18 265629
17 22 91 2185854 8 11 21070
18 2 15 498812 21 23 74053
19 0 0 0 12 23 620993
20 15 16 53154 29 31 85062
21 25 115 3062278 16 19 71854
22 62 67 262726 16 34 273297
23 0 0 0 29 38 142799
END_TIME

# Domain - Pages - Hits - Bandwidth
# The 25 first Pages must be first (order not required for others)
BEGIN_DOMAIN 10
us 287 909 21654819
pk 44 293 8807579
nl 5 5 78234
mk 4 31 983377
ru 2 2 5830
cn 1 10 133313
sk 1 1 2915
ro 1 1 2915
cz 1 1 9628
de 1 1 25
END_DOMAIN

# Cluster ID - Pages - Hits - Bandwidth
BEGIN_CLUSTER 0
END_CLUSTER

# Login - Pages - Hits - Bandwidth - Last visit
# The 10 first Pages must be first (order not required for others)
BEGIN_LOGIN 0
END_LOGIN

# Robot ID - Hits - Bandwidth - Last visit - Hits on robots.txt
# The 25 first Hits must be first (order not required for others)
BEGIN_ROBOT 7
googlebot 189 907448 20171022080853 7
bot[\s_+:,\.\;\/\\-] 147 1284376 20171022075353 30
bingpreview 22 1511614 20171018190601 0
spider 2 19256 20171018194155 0
no_user_agent 1 9628 20171018091709 0
crawl 1 2915 20171017005700 0
unknown 1 26 20171016145001 1
END_ROBOT

# Worm ID - Hits - Bandwidth - Last visit
# The 5 first Hits must be first (order not required for others)
BEGIN_WORMS 0
END_WORMS

# EMail - Hits - Bandwidth - Last visit
# The 20 first Hits must be first (order not required for others)
BEGIN_EMAILSENDER 0
END_EMAILSENDER

# EMail - Hits - Bandwidth - Last visit
# The 20 first hits must be first (order not required for others)
BEGIN_EMAILRECEIVER 0
END_EMAILRECEIVER

# Files type - Hits - Bandwidth - Bandwidth without compression - Bandwidth after compression
BEGIN_FILETYPES 6
Unknown 261 1106500 0 0
png 399 15405320 0 0
jpg 52 7412002 0 0
css 212 2107354 0 0
js 244 5363600 0 0
html 86 283859 0 0
END_FILETYPES

# Downloads - Hits - Bandwidth
BEGIN_DOWNLOADS 0
END_DOWNLOADS

# OS ID - Hits
BEGIN_OS ID - Hits - Pages 12
winnt 395 116
win8.1 5 5
ios_iphone 10 1
linuxandroid 469 89
Unknown 39 39
macosx7 217 53
linux 18 5
winxp 1 1
macosx9 1 1
win7 76 14
macosx 22 22
java 1 1
END_OS

# Browser ID - Hits - Pages
BEGIN_BROWSER 20
Unknown 30 30
chrome61.0.3163.79 14 1
chrome61.0.3163.100 430 120
chrome45.0.2454.93 1 1
netscape5.0 3 3
firefox50.0 1 1
chrome37.0.2062.120 3 3
firefox24.0 1 1
safari5.1 10 1
chrome43.0.2357.124 1 1
chrome50.0.2661.102 16 16
mozilla 11 11
chrome41.0.2272.118 458 107
chrome10.0.648.204 1 1
chrome58.0.3029.110 6 6
chrome40.0.2214.93 1 1
chrome61.0.3163.98 228 35
chrome57.0.2987.98 1 1
msie7.0 1 1
chrome55.0.0.12195 37 6
END_BROWSER

# Screen size - Hits
BEGIN_SCREENSIZE 0
END_SCREENSIZE

# Unknown referer OS - Last visit date
BEGIN_UNKNOWNREFERER 4
Magic_Browser 20171021180854
Mozilla/5.0_(compatible;_ips-agent) 20171016145014
Jersey/2.25.1_(Apache_HttpClient_4.5) 20171019225204
Mediapartners-Google 20171017143438
END_UNKNOWNREFERER

# Unknown referer Browser - Last visit date
BEGIN_UNKNOWNREFERERBROWSER 4
Mediapartners-Google 20171017143438
Java/1.8.0_111 20171015050108
Magic_Browser 20171021180854
Jersey/2.25.1_(Apache_HttpClient_4.5) 20171019225204
END_UNKNOWNREFERERBROWSER

# Origin - Pages - Hits 
BEGIN_ORIGIN 6
From0 207 207
From1 0 0
From2 1 1
From3 3 3
From4 136 1043
From5 0 0
END_ORIGIN

# Search engine referers ID - Pages - Hits
BEGIN_SEREFERRALS 1
google 1 1
END_SEREFERRALS

# External page referers - Pages - Hits
# The 25 first Pages must be first (order not required for others)
BEGIN_PAGEREFS 2
http://pizza-tycoon.com 2 2
http://burger-imperia.com 1 1
END_PAGEREFS

# Search keyphrases - Number of search
# The 10 first number of search must be first (order not required for others)
BEGIN_SEARCHWORDS 0
END_SEARCHWORDS

# Search keywords - Number of search
# The 25 first number of search must be first (order not required for others)
BEGIN_KEYWORDS 0
END_KEYWORDS

# Errors - Hits - Bandwidth
BEGIN_ERRORS 5
401 2 39227
500 1 1458
301 2 2294
404 3 1857
302 29 5889
END_ERRORS

# URL with 404 errors - Hits - Last URL referrer
BEGIN_SIDER_404 2
/css/bootstrap.css.map 2 -
/ads.txt 1 -
END_SIDER_404

# Host - Pages - Hits - Bandwidth - Last visit date - [Start date of last visit] - [Last page of last visit]
# [Start date of last visit] and [Last page of last visit] are saved only if session is not finished
# The 25 first Hits must be first (order not required for others)
BEGIN_VISITOR 41
68.60.106.89 105 301 6798338 20171021171436
66.249.91.194 47 257 7351992 20171019134709
66.249.89.150 29 123 3489186 20171021124132
66.249.91.196 20 41 553786 20171019134708
54.193.26.170 16 16 28032 20171017123345
39.50.101.47 12 116 3759974 20171016164834
39.51.183.26 12 44 1056385 20171018170839
66.249.89.152 12 24 174519 20171021124130
54.234.97.27 11 11 40943 20171019225204
69.58.178.58 10 10 130123 20171016145014
182.185.130.86 9 36 1000842 20171017153235
66.249.91.198 8 18 273067 20171019134703
39.50.114.24 6 37 1039042 20171017152804
93.190.141.161 5 5 78234 20171016111714
39.50.38.159 5 60 1951336 20171021163929
66.249.89.154 4 8 152130 20171021124127
95.180.210.252 4 31 983377 20171018140748
70.210.70.125 3 34 1024010 20171017162302
158.116.144.83 2 33 1019860 20171018134155
13.57.10.111 2 2 4701 20171017055523
104.45.18.178 2 2 14078 20171015110835
52.41.211.72 2 2 5830 20171021174053
52.8.59.90 2 2 8825 20171015050108
54.200.106.178 2 2 6579 20171021133636
185.117.118.234 1 1 2915 20171020061617
54.204.162.14 1 1 2915 20171019212644
137.226.113.23 1 1 25 20171013203314
158.46.167.4 1 1 2915 20171021172603
54.183.41.65 1 1 2915 20171017121707
85.248.227.165 1 1 2915 20171020143442
52.34.24.33 1 1 2915 20171017150958
95.46.45.83 1 1 9628 20171018020825
45.43.221.90 1 1 9628 20171020033707
13.56.81.170 1 14 528322 20171017123338
35.162.70.167 1 1 2915 20171021180854
54.67.67.222 1 1 2915 20171021083557
93.115.95.207 1 1 2915 20171018005028
74.85.208.174 1 1 9628 20171018055515
23.101.61.176 1 1 7039 20171015055642
42.159.225.37 1 10 133313 20171015170011
18.221.69.1 1 1 9628 20171016212240
END_VISITOR

# Date - Pages - Hits - Bandwidth - Visits
BEGIN_DAY 9
20171013 3 3 75 2
20171014 4 35 1021962 1
20171015 97 254 5398932 11
20171016 26 105 3016660 6
20171017 92 347 9104425 13
20171018 21 111 3081793 6
20171019 49 151 3299212 6
20171020 6 35 1000869 4
20171021 49 213 5754707 10
END_DAY

# Session range - Number of visits
BEGIN_SESSION 7
1h+ 2
30mn-1h 2
15mn-30mn 2
5mn-15mn 6
0s-30s 35
30s-2mn 1
2mn-5mn 11
END_SESSION

# URL - Pages - Bandwidth - Entry - Exit
# The 25 first Pages must be first (order not required for others)
BEGIN_SIDER 9
/ 86 283859 49 27
/cadmodels 80 285193 2 9
/login 53 228633 2 8
/members 34 95159 2 4
/register 31 283101 1 4
/contactus 25 91119 0 4
/home 24 64726 0 3
/members/1 13 57671 3 0
/admin/login 1 898 0 0
END_SIDER
